srv.ItemData.Armor,,,,,,,,,,srv.ItemData.Armor,,,,,,,,,srv.ItemData.Armor,,,,,,,srv.ItemData.Armor,,,,,,,,,,,,,,,
Name,Type,Sprite,Female Sprite,Level,Categories,Armor Type,unique buff builder,Notes,,Name,Type,Sprite,Female Sprite,Level,Categories,Armor Type,Done,,Name,Image,Type,Sprite,Level,Categories,,Name,Type,Sprite,Level,Categories,Slash,Bash,Pierce,Notes,,,,,,,
Cotton Shirt,Chest,body083,body051,2,"Loot, Cotton, Shirt",Cloth Armor,,,,Cotton Breeches,Leg,legs021,,2,"Loot, Cotton, Breeches",Cloth Armor,,,Cotton Hat,helms\helm_capcotton.png,Head,,3,"Hat, Loot, Cotton",,Bronze Aegis,Shield,shield_004,22,"Aegis, Loot",95,170,120,Images,,,,,,,
Cotton Vest,Chest,body025,body054,4,"Loot, Cotton, vest",Cloth Armor,,,,Cotton Leggings,Leg,legs022,body031,4,"Loot, Cotton, Leggings",Cloth Armor,,,Cotton Coif,helms\helm_capcotton.png,Head,,5,"Coif, Loot, Cotton",,Aegis,Shield,shield_019.unique2,100,"Aegis, Loot",165,140,220,,,,Bronze Hammers,,175,150,230
Cotton Robe,Chest,body077,,6,"Loot, Cotton, robe",Cloth Armor,,,,Cotton Pants,Leg,legs053,,6,"Loot, Cotton, Pants",Cloth Armor,,,Leather Hood,helms\helm_cowlleather.png,Head,,5,"Hood, Loot, Leather",,Bronze Buckler,Shield,shield_004,35,"Buckler, Loot",95,170,120,Images,,,Poplar Shield,,190,155,235
Cotton Tunic,Chest,body081,,9,"Loot, Cotton, tunic",Cloth Armor,,,,Cotton Trousers,Leg,legs053,,9,"Loot, Cotton, Trousers",Cloth Armor,,,Cotton Hood,helms\helm_cowlcotton.png,Head,,7,"Hood, Loot, Cotton",,Birch Escutcheon,Shield,shield_000,19,"Escutcheon, Loot",71,155,110,Images,,,Poplar Targe,,185,160,240
Cotton Doublet,Chest,body080,,11,"Loot, Cotton, doublet",Cloth Armor,,,,Cotton Pantaloons,Leg,legs053,,11,"Loot, Cotton, Pantaloons",Cloth Armor,,,Leather Helmet,helms\helm_capleather.png,Head,,7,"Helmet, Loot, Leather",,Oak Escutcheon,Shield,shield_008,38,"Escutcheon, Loot",80,160,115,,,,Poplar Heater Shield,,160,240,185
Cotton Bliaud,Chest,body080,,13,"Loot, Cotton, bliaud",Cloth Armor,,,,Cotton Britches,Leg,legs024,legs028,13,"Loot, Cotton, Britches",Cloth Armor,,,Linen Hat,helms\helm_capcotton.png,Head,,8,"Hat, Loot, Linen",,Bronze Escutcheon,Shield,shield_009,42,"Escutcheon, Loot",85,165,120,,,,Poplar Roundel,,200,175,255
Cotton Acton,Chest,body083,,15,"Loot, Cotton, acton",Cloth Armor,,,,Cotton Slops,Leg,legs054,,15,"Loot, Cotton, Slops",Cloth Armor,,,Leather Helm,helms\helm_capleather.png,Head,,10,"Helm, Loot, Leather",,Reinforced Escutcheon,Shield,shield_010,46,"Escutcheon, Loot",90,175,125,,,,Poplar Kite Shield,,175,255,200
Bronze Breastplate,Chest,body099,body095,2,"Loot, bronze, brestplate",Metal Armor,,,,Bronze Chausses,Leg,legs025,legs027,2,"Loot, Bronze, Chausses",Metal Armor,,,Linen Coif,helms\helm_capcotton.png,Head,,10,"Coif, Loot, Linen",,Adamantine Escutcheon,Shield,shield_015,64,"Escutcheon, Loot",105,180,130,,,,Birch Shield,,210,185,265
Bronze Byrnie,Chest,body095,,3,"Loot, bronze, brynie",Metal Armor,,,,Bronze Greaves,Leg,legs055,,3,"Loot, Bronze, Greaves",Metal Armor,,,Boiled Leather Hood,helms\helm_cowlleather.png,Head,,12,"Hood, Loot, Boiled Leather",,Great Escutcheon,Shield,shield_016,72,"Escutcheon, Loot",115,195,140,,,,Poplar Escutcheon,,195,285,220
Bronze Chainmail,Chest,body100,,7,"Loot, bronze, chainmail",Metal Armor,,,,Bronze Poleyn,Leg,legs055,,7,"Loot, Bronze, Poleyn",Metal Armor,,,Linen Hood,helms\helm_cowlcotton.png,Head,,12,"Hood, Loot, Linen",,Steel Escutcheon,Shield,shield_017,78,"Escutcheon, Loot",150,125,205,,,,Birch Targe,,230,205,295
Bronze Curiass,Chest,body099,body095,9,"Loot, bronze, curiass",Metal Armor,,,,Bronze Scynbalds,Leg,legs055,,9,"Loot, Bronze, Scynbalds",Metal Armor,,,Boiled Leather Helmet,helms\helm_capleather.png,Head,,14,"Helmet, Loot, Boiled Leather",,Gold Escutcheon,Shield,shield_018,90,"Escutcheon, Loot",125,205,150,,,,Birch Heater Shield,,235,210,300
Bronze Plate,Chest,body099,,12,"Loot, bronze, plate",Metal Armor,,,,Bronze Legplates,Leg,legs055,,12,"Loot, Bronze, Legplates",Metal Armor,,,Wool Hat,helms\helm_capwool.png,Head,,14,"Hat, Loot, Wool",,Birch Heater Shield,Shield,shield_002,16,"Heater Shield, Loot",85,165,120,Images,,,Birch Roundel,,240,215,305
Bronze Ringmail,Chest,body101,,14,"Loot, bronze, ringmail",Metal Armor,,,,Bronze Cuisses,Leg,legs056,,14,"Loot, Bronze, Cuisses",Metal Armor,,,Boiled Leather Helm,helms\helm_capleather.png,Head,,15,"Helm, Loot, Boiled Leather",,Bronze Heater Shield,Shield,shield_001,20,"Heater Shield, Loot",80,160,115,Images,,,Bronze Shield,,215,305,240
Bronze Scale Mail,Chest,body099,,15,"Loot, bronze, scalemail",Metal Armor,,,,Bronze Leggings,Leg,legs056,,15,"Loot, Bronze, Leggings",Metal Armor,,,Hardened Leather Hood,helms\helm_cowlleather.png,Head,,17,"Hood, Loot, Hardened Leather",,Poplar Heater Shield,Shield,shield_001,28,"Heater Shield, Loot",80,160,115,Images,,,Birch Kite Shield,,250,225,315
Worn Leather Brigandine,Chest,body120,,3,"Loot, worn leather, brigandine",Leather Armor,,,,Worn Leather Legguards,Leg,legs056,,3,"Loot, Worn Leather, Legguards",Leather Armor,,,Wool Coif,helms\helm_capwool.png,Head,,17,"Coif, Loot, Wool",,Wooden Kite Shield,Shield,shield_002,9,"Kite Shield, Loot",53,124,88,Images,,,Bronze Targe,,260,235,325
Worn Leather Coat,Chest,body120,,5,"Loot, worn leather, coat",Leather Armor,,,,Worn Leather Kilt,Leg,legs056,,5,"Loot, Worn Leather, Kilt",Leather Armor,,,Hardened Leather Helmet,helms\helm_capleather.png,Head,,19,"Helmet, Loot, Hardened Leather",,Oak Kite Shield,Shield,shield_004,10,"Kite Shield, Loot",66,127,105,Images,,,Birch Escutcheon,,270,240,335
Worn Leather Gambeson,Chest,body119,,6,"Loot, worn leather, Gambeson",Leather Armor,,,,Worn Leather Leg Wraps,Leg,legs056,,6,"Loot, Worn Leather, Leg Wraps",Leather Armor,,,Obsidian Helmet,helms\failhelm.png,Head,,19,"Helmet, Loot, Obsidian",,Birch Kite Shield,Shield,shield_004,17,"Kite Shield, Loot",95,170,120,Images,,,Bronze Heater Shield,,245,330,270
Worn Leather Jerkin,Chest,body121,,8,"Loot, worn leather, Jerkin",Leather Armor,,,,Worn Leather Haidate,Leg,legs057,,8,"Loot, Worn Leather, Haidate",Leather Armor,,,Wool Hood,helms\helm_capwool.png,Head,,19,"Hood, Loot, Wool",,Poplar Kite Shield,Shield,shield_003,31,"Kite Shield, Loot",90,175,125,Images,,,Oak Shield,,265,245,330
Worn Leather Segmentata,Chest,body121,,10,"Loot, worn leather, Segmentata",Leather Armor,,,,Worn Leather Culottes,Leg,legs057,,10,"Loot, Worn Leather, Culottes",Leather Armor,,,Hardened Leather Helm,helms\helm_capleather.png,Head,,22,"Helm, Loot, Hardened Leather",,Wooden Polar Shield,Shield,shield_001,7,"Polar Shield, Loot",41,110,83,Images,,,Bronze Roundel,,255,340,275
Worn Leather Harness,Chest,body119,,13,"Loot, worn leather, Hardness",Leather Armor,,,,Worn Leather Sarouel,Leg,legs057,,13,"Loot, Worn Leather, Sarouel",Leather Armor,,,Silk Hat,helms\failhelm9.png,Head,,22,"Hat, Loot, Silk",,Bronze Polar Shield,Shield,shield_013,54,"Polar Shield, Loot",100,175,125,,,,Oak Targe,,275,255,340
Worn Leather Surcoat,Chest,body119,,15,"Loot, worn leather, Surcoat",Leather Armor,,,,Worn Leather Leggings,Leg,legs057,,15,"Loot, Worn Leather, Leggings",Leather Armor,,,Obsidian Crown,helms\helm_steel.png,Head,,23,"Crown, Loot, Obsidian",,Adamantine Polar Shield,Shield,shield_014,58,"Polar Shield, Loot",100,185,135,,,,Bronze Buckler,,285,260,350
Linen Shirt,Chest,body017,,17,"Loot, linen, shirt",Cloth Armor,,,,Linen Breeches,Leg,legs023,legs032,17,"Loot, Linen, Breeches",Cloth Armor,,,Studded Leather Hood,helms\helm_cowlleather.png,Head,,24,"Hood, Loot, Studded Leather",,Birch Roundel,Shield,shield_003,16,"Roundel, Loot",90,175,125,Images,,,Oak Heater Shield,,265,355,290
Linen Vest,Chest,body021,,19,"Loot, linen, vest",Cloth Armor,,,,Linen Leggings,Leg,legs058,,19,"Loot, Linen, Leggings",Cloth Armor,,,Obsidian Mask,helms\helm_steel.png,Head,,26,"Mask, Loot, Obsidian",,Bronze Roundel,Shield,shield_002,21,"Roundel, Loot",85,165,120,Images,,,Bronze Kite Shield,,290,265,355
Linen Robe,Chest,body085,,20,"Loot, linen, Robe",Cloth Armor,,,,Linen Pants,Leg,legs058,,20,"Loot, Linen, Pants",Cloth Armor,,,Studded Leather Helmet,helms\helm_capleather.png,Head,,26,"Helmet, Loot, Studded Leather",,Poplar Roundel,Shield,shield_002,30,"Roundel, Loot",85,165,120,Images,,,Oak Roundel,,275,365,300
Linen Tunic,Chest,body083,,22,"Loot, linen, Tunic",Cloth Armor,,,,Linen Trousers,Leg,legs058,,22,"Loot, Linen, Trousers",Cloth Armor,,,Obsidian Helm,helms\failhelm5.png,Head,,28,"Helm, Loot, Obsidian",,Damaged Wooden Shield,Shield,shield_000,5,"Shield, Loot",41,110,83,Images,,,Bronze Escutcheon,,300,275,365
Linen Doublet,Chest,body083,,24,"Loot, linen, Doublet",Cloth Armor,,,,Linen Pantaloons,Leg,legs058,,24,"Loot, Linen, Pantaloons",Cloth Armor,,,Silk Coif,helms\failhelm9.png,Head,,28,"Coif, Loot, Silk",,Oak Shield,Shield,shield_003,10,"Shield, Loot",60,132,100,Images,,,Bronze Tower Shield,,305,280,370
Linen Bliaud,Chest,body085,,26,"Loot, linen, Bliaud",Cloth Armor,,,,Linen Britches,Leg,legs059,,26,"Loot, Linen, Britches",Cloth Armor,,,Studded Leather Helm,helms\helm_capleather.png,Head,,30,"Helm, Loot, Studded Leather",,Reinforced Shield,Shield,shield_005,11,"Shield, Loot",70,144,110,Images,,,Bronze Aegis,,310,290,375
Linen Acton,Chest,body017,,28,"Loot, linen, Acton",Cloth Armor,,,,Linen Slops,Leg,legs059,,28,"Loot, Linen, Slops",Cloth Armor,,,Silk Hood,helms\failhelm9.png,Head,,31,"Hood, Loot, Silk",,Birch Shield,Shield,shield_000,13,"Shield, Loot",71,155,110,Images,,,Obsidian Shield,,315,285,380
Obsidian Breastplate,Chest,body110,,17,"Loot, Obsidian, Breasplate",Metal Armor,,,,Obsidian Chausses,Leg,legs059,,17,"Loot, Obsidian, Chausses",Metal Armor,,,Bronze Helmet,helms\helm_bronze.png,Head,,33,"Helmet, Loot, Bronze",,Poplar Shield,Shield,shield_005,22,"Shield, Loot",95,180,130,Images,,,Oak Kite Shield,,325,305,390
Obsidian Byrnie,Chest,body108,,19,"Loot, Obsidian, byrnie",Metal Armor,,,,Obsidian Greaves,Leg,legs059,,19,"Loot, Obsidian, Greaves",Metal Armor,,,Bronze Crown,helms\helm_bronze.png,Head,,35,"Crown, Loot, Bronze",,Shield of Achilles,Shield,shield_005,36,"Shield, Loot",71,155,110,,,,Obsidian Targe,,330,310,385
Obsidian Chainmail,Chest,body068,,20,"Loot, Obsidian, Chainmail",Metal Armor,,,,Obsidian Poleyn,Leg,legs060,,20,"Loot, Obsidian, Poleyn",Metal Armor,,,Obsidian Armet,helms\helm_armet-steel.png,Head,,35,"Armet, Loot, Obsidian",,Svalinn,Shield,shield_010.unique,48,"Shield, Loot",95,170,120,,,,Oak Escutcheon,,335,315,400
Obsidian Curiass,Chest,body109,,21,"Loot, Obsidian, Curiass",Metal Armor,,,,Obsidian Scynbalds,Leg,legs060,,21,"Loot, Obsidian, Scynbalds",Metal Armor,,,Bronze Mask,helms\helm_bronze.png,Head,,37,"Mask, Loot, Bronze",,Bronze Shield,Shield,shield_011,50,"Shield, Loot",95,180,130,,,,Obsidian Heater Shield,,345,320,410
Obsidian Plate,Chest,body107,,23,"Loot, Obsidian, Plate",Metal Armor,,,,Obsidian Legplates,Leg,legs060,,23,"Loot, Obsidian, Legplates",Metal Armor,,,Obsidian Casque,helms\helm_armet-steel.png,Head,,37,"Casque, Loot, Obsidian",,Polaris,Shield,shield_014.unique,60,"Shield, Loot",130,105,185,,,,Obsidianwood Shield,,320,410,345
Obsidian Ringmail,Chest,body108,,26,"Loot, Obsidian, Ringmail",Metal Armor,,,,Obsidian Cuisses,Leg,legs060,,26,"Loot, Obsidian, Cuisses",Metal Armor,,,Samite Hat,helms\failhelm9.png,Head,,37,"Hat, Loot, Samite",,Escutchous,Shield,shield_015.unique,68,"Shield, Loot",140,115,195,,,,Obsidian Roundel,,365,325,420
Obsidian Scale Mail,Chest,body108,,29,"Loot, Obsidian, Scale Mail",Metal Armor,,,,Obsidian Leggings,Leg,legs060,,29,"Loot, Obsidian, Leggings",Metal Armor,,,Samite Coif,helms\failhelm9.png,Head,,42,"Coif, Loot, Samite",,Tower Shield,Shield,shield_019,96,"Shield, Loot",155,130,210,,,,Obsidian Buckler,,370,330,425
Boiled Leather Brigandine,Chest,body120,,16,"Loot, Boiled Leather, Brigandine",Leather Armor,,,,Boiled Leather Legguards,Leg,legs060,,16,"Loot, Boiled Leather, Legguards",Leather Armor,,,Bronze Armet,helms\helm_bronze.png,Head,,44,"Armet, Loot, Bronze",,Scutum,Shield,shield_019.unique,98,"Shield, Loot",130,210,155,,,,Obsidian Kite Shield,,330,425,370
Boiled Leather Coat,Chest,body120,,19,"Loot, Boiled Leather, coat",Leather Armor,,,,Boiled Leather Kilt,Leg,legs061,,19,"Loot, Boiled Leather, Kilt",Leather Armor,,,Obsidian Sallet,helms\helm_steel.png,Head,,44,"Sallet, Loot, Obsidian",,Birch Targe,Shield,shield_001,14,"Targe, Loot",80,160,115,Images,,,Obsidianwood Targe,,385,335,435
Boiled Leather Gambeson,Chest,body119,,21,"Loot, Boiled Leather, Gambeson",Leather Armor,,,,Boiled Leather Leg Wraps,Leg,legs061,,21,"Loot, Boiled Leather, Leg Wraps",Leather Armor,,,Bronze Casque,helms\helm_bronze.png,Head,,48,"Casque, Loot, Bronze",,Bronze Targe,Shield,shield_005,19,"Targe, Loot",95,180,130,Images,,,Obsidian Escutcheon,,390,335,440
Boiled Leather Jerkin,Chest,body121,,23,"Loot, Boiled Leather, Jerkin",Leather Armor,,,,Boiled Leather Haidate,Leg,legs061,,23,"Loot, Boiled Leather, Haidate",Leather Armor,,,Bronze Sallet,helms\helm_bronze.png,Head,,52,"Sallet, Loot, Bronze",,Oak Targe,Shield,shield_003,21,"Targe, Loot",90,175,125,Images,,,Obsidian Tower Shield,,395,340,445
Boiled Leather Segmentata,Chest,body121,,25,"Loot, Boiled Leather, Segmentata",Leather Armor,,,,Boiled Leather Culottes,Leg,legs061,,25,"Loot, Boiled Leather, Culottes",Leather Armor,,,Samite Hood,helms\failhelm9.png,Head,,52,"Hood, Loot, Samite",,Poplar Targe,Shield,shield_000,25,"Targe, Loot",71,155,110,Images,,,Obsidian Aegis,,400,350,445
Boiled Leather Harness,Chest,body120,,27,"Loot, Boiled Leather, Hardness",Leather Armor,,,,Boiled Leather Sarouel,Leg,legs061,,27,"Loot, Boiled Leather, Sarouel",Leather Armor,,,Bronze Barbute,helms\helm_bronze.png,Head,,54,"Barbute, Loot, Bronze",,,,,,,,,,,,,Obsidianwood Heater Shield,,345,450,400
Boiled Leather Surcoat,Chest,body119,,29,"Loot, Boiled Leather, Surcoat",Leather Armor,,,,Boiled Leather Leggings,Leg,legs061,,29,"Loot, Boiled Leather, Leggings",Leather Armor,,,Bronze Great Helm,helms\helm_bronze.png,Head,,57,"Great Helm, Loot, Bronze",,,,,,,,,,,,,Steel Shield,,395,345,450
Jute Shirt,Chest,body083,,30,"Loot, Jute, shirt",Cloth Armor,,,,Jute Breeches,Leg,legs062,,30,"Loot, Jute, Breeches",Cloth Armor,,,Obsidian Barbute,helms\helm_barbute-steel.png,Head,,57,"Barbute, Loot, Obsidian",,,,,,,,,,,,,Obsidianwood Roundel,,360,455,410
Jute Vest,Chest,body025,,32,"Loot, Jute, vest",Cloth Armor,,,,Jute Leggings,Leg,legs062,,32,"Loot, Jute, Leggings",Cloth Armor,,,Obsidian Great Helm,helms\failhelm6.png,Head,,59,"Great Helm, Loot, Obsidian",,,,,,,,,,,,,Steel Targe,,410,360,455
Jute Robe,Chest,body077,,35,"Loot, Jute, Robe",Cloth Armor,,,,Jute Pants,Leg,legs063,,35,"Loot, Jute, Pants",Cloth Armor,,,Steel Helmet,helms\failhelm.png,Head,,59,"Helmet, Loot, Steel",,,,,,,,,,,,,Steel Heater Shield,,415,365,460
Jute Tunic,Chest,body081,,37,"Loot, Jute, Tunic",Cloth Armor,,,,Jute Trousers,Leg,legs063,,37,"Loot, Jute, Trousers",Cloth Armor,,,Steel Crown,helms\helm_steel.png,Head,,60,"Crown, Loot, Steel",,,,,,,,,,,,,Obsidianwood Kite Shield,,370,465,420
Jute Doublet,Chest,body080,,38,"Loot, Jute, Doublet",Cloth Armor,,,,Jute Pantaloons,Leg,legs064,,38,"Loot, Jute, Pantaloons",Cloth Armor,,,Steel Helm,helms\failhelm5.png,Head,,62,"Helm, Loot, Steel",,,,,,,,,,,,,Steel Roundel,,420,370,465
Jute Bliaud,Chest,body080,,40,"Loot, Jute, Bliaud",Cloth Armor,,,,Jute Britches,Leg,legs064,,40,"Loot, Jute, Britches",Cloth Armor,,,Steel Mask,helms\helm_steel.png,Head,,62,"Mask, Loot, Steel",,,,,,,,,,,,,Obsidianwood Escutcheon,,395,480,435
Jute Acton,Chest,body083,,43,"Loot, Jute, ACton",Cloth Armor,,,,Jute Slops,Leg,legs065,,43,"Loot, Jute, Slops",Cloth Armor,,,Steel Armet,helms\helm_steel.png,Head,,63,"Armet, Loot, Steel",,,,,,,,,,,,,Steel Buckler,,435,395,480
Steel Breastplate,Chest,body098,,31,"Loot, Steel, breastplate",Metal Armor,,,,Steel Chausses,Leg,legs066,,31,"Loot, Steel, Chausses",Metal Armor,,,Steel Casque,helms\helm_steel.png,Head,,65,"Casque, Loot, Steel",,,,,,,,,,,,,Steel Kite Shield,,440,400,485
Steel Byrnie,Chest,body096,,33,"Loot, Steel, byrnie",Metal Armor,,,,Steel Greaves,Leg,legs066,,33,"Loot, Steel, Greaves",Metal Armor,,,Steel Sallet,helms\helm_steel.png,Head,,67,"Sallet, Loot, Steel",,,,,,,,,,,,,Steel Escutcheon,,440,405,495
Steel Chainmail,Chest,body106,,35,"Loot, Steel, chainmail",Metal Armor,,,,Steel Poleyn,Leg,legs067,,35,"Loot, Steel, Poleyn",Metal Armor,,,Steel Barbute,helms\helm_steel.png,Head,,68,"Barbute, Loot, Steel",,,,,,,,,,,,,Steel Tower Shield,,445,400,490
Steel Curiass,Chest,body097,,37,"Loot, Steel, curiass",Metal Armor,,,,Steel Scynbalds,Leg,legs068,,37,"Loot, Steel, Scynbalds",Metal Armor,,,Adamantine Helmet,helms\helm_helmet-adamantine.png,Head,,70,"Helmet, Loot, Adamantine",,,,,,,,,,,,,Adamantine Shield,,450,415,505
Steel Plate,Chest,body007,,39,"Loot, Steel, plate",Metal Armor,,,,Steel Legplates,Leg,legs068,,39,"Loot, Steel, Legplates",Metal Armor,,,Steel Great Helm,helms\failhelm6.png,Head,,70,"Great Helm, Loot, Steel",,,,,,,,,,,,,Steel Aegis,,455,410,500
Steel Ringmail,Chest,body096,,40,"Loot, Steel, ringmail",Metal Armor,,,,Steel Cuisses,Leg,legs069,,40,"Loot, Steel, Cuisses",Metal Armor,,,Adamantine Crown,helms\helm_adamantine.png,Head,,72,"Crown, Loot, Adamantine",,,,,,,,,,,,,Adamantine Targe,,460,410,510
Steel Scale Mail,Chest,body096,,42,"Loot, Steel, scale mail",Metal Armor,,,,Steel Leggings,Leg,legs070,,42,"Loot, Steel, Leggings",Metal Armor,,,Adamantine Mask,helms\helm_barbute-adamantine.png,Head,,75,"Mask, Loot, Adamantine",,,,,,,,,,,,,Adamantine Heater Shield,,470,420,520
Hardened Leather Brigandine,Chest,body118,,31,"Loot, Hardened Leather, brigandine",Leather Armor,,,,Hardened Leather Legguards,Leg,legs071,,31,"Loot, Hardened Leather, Legguards",Leather Armor,,,Adamantine Helm,helms\helm_helmet-adamantine.png,Head,,76,"Helm, Loot, Adamantine",,,,,,,,,,,,,Elderwood Shield,,480,430,530
Hardened Leather Coat,Chest,body118,,32,"Loot, Hardened Leather, coat",Leather Armor,,,,Hardened Leather Kilt,Leg,legs072,,32,"Loot, Hardened Leather, Kilt",Leather Armor,,,Adamantine Armet,helms\helm_armet-adamantine.png,Head,,77,"Armet, Loot, Adamantine",,,,,,,,,,,,,Adamantine Roundel,,485,435,535
Hardened Leather Gambeson,Chest,body119,,34,"Loot, Hardened Leather, Gambeson",Leather Armor,,,,Hardened Leather Leg Wraps,Leg,legs073,,34,"Loot, Hardened Leather, Leg Wraps",Leather Armor,,,Adamantine Casque,helms\helm_armet-adamantine.png,Head,,78,"Casque, Loot, Adamantine",,,,,,,,,,,,,Adamantine Buckler,,495,440,545
Hardened Leather Jerkin,Chest,body116,,36,"Loot, Hardened Leather, Jerkin",Leather Armor,,,,Hardened Leather Haidate,Leg,legs074,,36,"Loot, Hardened Leather, Haidate",Leather Armor,,,Adamantine Sallet,helms\helm_sallet-adamantine.png,Head,,79,"Sallet, Loot, Adamantine",,,,,,,,,,,,,Elderwood Targe,,500,450,555
Hardened Leather Segmentata,Chest,body116,,37,"Loot, Hardened Leather, Segmentata",Leather Armor,,,,Hardened Leather Culottes,Leg,legs056,,37,"Loot, Hardened Leather, Culottes",Leather Armor,,,Adamantine Barbute,helms\helm_barbute-adamantine.png,Head,,80,"Barbute, Loot, Adamantine",,,,,,,,,,,,,Adamantine Kite Shield,,495,445,550
Hardened Leather Harness,Chest,body119,,39,"Loot, Hardened Leather, Hardness",Leather Armor,,,,Hardened Leather Sarouel,Leg,legs056,,39,"Loot, Hardened Leather, Sarouel",Leather Armor,,,Adamantine Great Helm,helms\helm_great-adamantine.png,Head,,81,"Great Helm, Loot, Adamantine",,,,,,,,,,,,,Adamantine Escutcheon,,515,465,575
Hardened Leather Surcoat,Chest,body116,,42,"Loot, Hardened Leather, Curcoat",Leather Armor,,,,Hardened Leather Leggings,Leg,legs056,,42,"Loot, Hardened Leather, Leggings",Leather Armor,,,Mythril Helmet,helms\failhelm9.png,Head,,81,"Helmet, Loot, Mythril",,,,,,,,,,,,,Adamantine Tower Shield,,,,
Wool Shirt,Chest,body081,,45,"Loot, Wool, shirt",Cloth Armor,,,,Wool Breeches,Leg,legs056,,45,"Loot, Wool, Breeches",Cloth Armor,,,Mythril Crown,helms\failhelm7.png,Head,,83,"Crown, Loot, Mythril",,,,,,,,,,,,,Adamantine Aegis,,,,
Wool Vest,Chest,body090,,47,"Loot, Wool, vest",Cloth Armor,,,,Wool Leggings,Leg,legs056,,47,"Loot, Wool, Leggings",Cloth Armor,,,Mythril Mask,helms\failhelm9.png,Head,,84,"Mask, Loot, Mythril",,,,,,,,,,,,,Elderwood Heater Shield,,,,
Wool Robe,Chest,body086,,49,"Loot, Wool, Robe",Cloth Armor,,,,Wool Pants,Leg,legs057,,49,"Loot, Wool, Pants",Cloth Armor,,,Mythril Helm,helms\failhelm9.png,Head,,85,"Helm, Loot, Mythril",,,,,,,,,,,,,Mythril Shield,,,,
Wool Tunic,Chest,body081,,50,"Loot, Wool, Tunic",Cloth Armor,,,,Wool Trousers,Leg,legs057,,50,"Loot, Wool, Trousers",Cloth Armor,,,Mythril Armet,helms\failhelm2.png,Head,,86,"Armet, Loot, Mythril",,,,,,,,,,,,,Elderwood Roundel,,,,
Wool Doublet,Chest,body081,,53,"Loot, Wool, Doublet",Cloth Armor,,,,Wool Pantaloons,Leg,legs057,,53,"Loot, Wool, Pantaloons",Cloth Armor,,,Mythril Casque,helms\failhelm4.png,Head,,87,"Casque, Loot, Mythril",,,,,,,,,,,,,Mythril Targe,,,,
Wool Bliaud,Chest,body086,,55,"Loot, Wool, Bliaud",Cloth Armor,,,,Wool Britches,Leg,legs057,,55,"Loot, Wool, Britches",Cloth Armor,,,Mythril Sallet,helms\failhelm9.png,Head,,88,"Sallet, Loot, Mythril",,,,,,,,,,,,,Mythril Heater Shield,,,,
Wool Acton,Chest,body090,,57,"Loot, Wool, Acton",Cloth Armor,,,,Wool Slops,Leg,legs023,,57,"Loot, Wool, Slops",Cloth Armor,,,Mythril Barbute,helms\failhelm3.png,Head,,89,"Barbute, Loot, Mythril",,,,,,,,,,,,,Elderwood Kite Shield,,,,
Orichalcum Breastplate,Chest,body110,,44,"Loot, Orichalcum, Breastplate",Metal Armor,,,,Orichalcum Chausses,Leg,legs058,,44,"Loot, Orichalcum, Chausses",Metal Armor,,,Mythril Great Helm,helms\failhelm9.png,Head,,90,"Great Helm, Loot, Mythril",,,,,,,,,,,,,Mythril Roundel,,,,
Orichalcum Byrnie,Chest,body108,,45,"Loot, Orichalcum, Byrnie",Metal Armor,,,,Orichalcum Greaves,Leg,legs058,,45,"Loot, Orichalcum, Greaves",Metal Armor,,,Orichalcum Helmet,helms\failhelm9.png,Head,,90,"Helmet, Loot, Orichalcum",,,,,,,,,,,,,Elderwood Escutcheon,,,,
Orichalcum Chainmail,Chest,body068,,48,"Loot, Orichalcum, Chainmail",Metal Armor,,,,Orichalcum Poleyn,Leg,legs058,,48,"Loot, Orichalcum, Poleyn",Metal Armor,,,Orichalcum Crown,helms\failhelm9.png,Head,,91,"Crown, Loot, Orichalcum",,,,,,,,,,,,,Mythril Buckler,,,,
Orichalcum Curiass,Chest,body109,,50,"Loot, Orichalcum, Curiass",Metal Armor,,,,Orichalcum Scynbalds,Leg,legs058,,50,"Loot, Orichalcum, Scynbalds",Metal Armor,,,Orichalcum Mask,helms\failhelm9.png,Head,,93,"Mask, Loot, Orichalcum",,,,,,,,,,,,,Mythril Kite Shield,,,,
Orichalcum Plate,Chest,body102,,52,"Loot, Orichalcum, Plate",Metal Armor,,,,Orichalcum Legplates,Leg,legs059,,52,"Loot, Orichalcum, Legplates",Metal Armor,,,Orichalcum Helm,helms\failhelm9.png,Head,,94,"Helm, Loot, Orichalcum",,,,,,,,,,,,,Mythril Escutcheon,,,,
Orichalcum Ringmail,Chest,body099,,54,"Loot, Orichalcum, Ringmail",Metal Armor,,,,Orichalcum Cuisses,Leg,legs059,,54,"Loot, Orichalcum, Cuisses",Metal Armor,,,Orichalcum Armet,helms\failhelm9.png,Head,,95,"Armet, Loot, Orichalcum",,,,,,,,,,,,,Mythril Tower Shield,,,,
Orichalcum Scale Mail,Chest,body099,,56,"Loot, Orichalcum, Scale Mail",Metal Armor,,,,Orichalcum Leggings,Leg,legs059,,56,"Loot, Orichalcum, Leggings",Metal Armor,,,Orichalcum Casque,helms\failhelm9.png,Head,,95,"Casque, Loot, Orichalcum",,,,,,,,,,,,,Mythril Aegis,,,,
Studded Leather Brigandine,Chest,body118,,44,"Loot, StuddedLeather, Brigandine",Leather Armor,,,,Studded Leather Legguards,Leg,legs059,,44,"Loot, Studded Leather, Legguards",Leather Armor,,,Orichalcum Sallet,helms\failhelm9.png,Head,,95,"Sallet, Loot, Orichalcum",,,,,,,,,,,,,Orichalcum Shield,,,,
Studded Leather Coat,Chest,body118,,46,"Loot, StuddedLeather, coat",Leather Armor,,,,Studded Leather Kilt,Leg,legs060,,46,"Loot, Studded Leather, Kilt",Leather Armor,,,Orichalcum Barbute,helms\failhelm9.png,Head,,96,"Barbute, Loot, Orichalcum",,,,,,,,,,,,,Orichalcum Targe,,,,
Studded Leather Gambeson,Chest,body119,,48,"Loot, StuddedLeather, Gambeson",Leather Armor,,,,Studded Leather Leg Wraps,Leg,legs060,,48,"Loot, Studded Leather, Leg Wraps",Leather Armor,,,Orichalcum Great Helm,helms\failhelm9.png,Head,,96,"Great Helm, Loot, Orichalcum",,,,,,,,,,,,,Orichalcum Heater Shield,,,,
Studded Leather Jerkin,Chest,body116,,51,"Loot, StuddedLeather, Jerkin",Leather Armor,,,,Studded Leather Haidate,Leg,legs060,,51,"Loot, Studded Leather, Haidate",Leather Armor,,,,,,,,,,,,,,,,,,,,,Orichalcum Roundel,,,,
Studded Leather Segmentata,Chest,body119,,52,"Loot, StuddedLeather, Segmentata",Leather Armor,,,,Studded Leather Culottes,Leg,legs060,,52,"Loot, Studded Leather, Culottes",Leather Armor,,,,,,,,,,,,,,,,,,,,,Orichalcum Buckler,,,,
Studded Leather Harness,Chest,body116,,54,"Loot, StuddedLeather, Hardness",Leather Armor,,,,Studded Leather Sarouel,Leg,legs060,,54,"Loot, Studded Leather, Sarouel",Leather Armor,,,,,,,,,,,,,,,,,,,,,Orichalcum Kite Shield,,,,
Studded Leather Surcoat,Chest,body118,,57,"Loot, StuddedLeather, Curcoat",Leather Armor,,,,Studded Leather Leggings,Leg,legs060,,57,"Loot, Studded Leather, Leggings",Leather Armor,,,,,,,,,,,,,,,,,,,,,Orichalcum Escutcheon,,,,
Silk Shirt,Chest,body017,,58,"Loot, Silk, shirt",Cloth Armor,,,,Silk Breeches,Leg,legs061,,58,"Loot, Silk, Breeches",Cloth Armor,,,,,,,,,,,,,,,,,,,,,Orichalcum Tower Shield,,,,
Silk Vest,Chest,body091,,60,"Loot, Silk, vest",Cloth Armor,,,,Silk Leggings,Leg,legs061,,60,"Loot, Silk, Leggings",Cloth Armor,,,,,,,,,,,,,,,,,,,,,Orichalcum Aegis,,,,
Silk Robe,Chest,body088,,61,"Loot, Silk, Robe",Cloth Armor,,,,Silk Pants,Leg,legs061,,61,"Loot, Silk, Pants",Cloth Armor,,,,,,,,,,,,,,,,,,,,,,,,,
Silk Tunic,Chest,body039,,63,"Loot, Silk, Tunic",Cloth Armor,,,,Silk Trousers,Leg,legs061,,63,"Loot, Silk, Trousers",Cloth Armor,,,,,,,,,,,,,,,,,,,,,,,,,
Silk Doublet,Chest,body084,,65,"Loot, Silk, Doublet",Cloth Armor,,,,Silk Pantaloons,Leg,legs061,,65,"Loot, Silk, Pantaloons",Cloth Armor,,,,,,,,,,,,,,,,,,,,,,,,,
Silk Bliaud,Chest,body084,,67,"Loot, Silk, Bliaud",Cloth Armor,,,,Silk Britches,Leg,legs061,,67,"Loot, Silk, Britches",Cloth Armor,,,,,,,,,,,,,,,,,,,,,,,,,
Silk Acton,Chest,body017,,70,"Loot, Silk, Acton",Cloth Armor,,,,Silk Slops,Leg,legs062,,70,"Loot, Silk, Slops",Cloth Armor,,,,,,,,,,,,,,,,,,,,,,,,,
Adamantine Breastplate,Chest,body111,,59,"Loot, Adamantine, Breastplate",Metal Armor,,,,Adamantine Chausses,Leg,legs062,,59,"Loot, Adamantine, Chausses",Metal Armor,,,,,,,,,,,,,,,,,,,,,,,,,
Adamantine Byrnie,Chest,body113,,60,"Loot, Adamantine, Byrnie",Metal Armor,,,,Adamantine Greaves,Leg,legs063,,60,"Loot, Adamantine, Greaves",Metal Armor,,,,,,,,,,,,,,,,,,,,,,,,,
Adamantine Chainmail,Chest,body093,,62,"Loot, Adamantine, Chainmail",Metal Armor,,,,Adamantine Poleyn,Leg,legs063,,62,"Loot, Adamantine, Poleyn",Metal Armor,,,,,,,,,,,,,,,,,,,,,,,,,
Adamantine Curiass,Chest,body112,,65,"Loot, Adamantine, Curiass",Metal Armor,,,,Adamantine Scynbalds,Leg,legs064,,65,"Loot, Adamantine, Scynbalds",Metal Armor,,,,,,,,,,,,,,,,,,,,,,,,,
Adamantine Plate,Chest,body114,,67,"Loot, Adamantine, Plate",Metal Armor,,,,Adamantine Legplates,Leg,legs064,,67,"Loot, Adamantine, Legplates",Metal Armor,,,,,,,,,,,,,,,,,,,,,,,,,
Adamantine Ringmail,Chest,body113,,69,"Loot, Adamantine, Ringmail",Metal Armor,,,,Adamantine Cuisses,Leg,legs065,,69,"Loot, Adamantine, Cuisses",Metal Armor,,,,,,,,,,,,,,,,,,,,,,,,,
Adamantine Scale Mail,Chest,body113,,71,"Loot, Adamantine, Scale mail",Metal Armor,,,,Adamantine Leggings,Leg,legs066,,71,"Loot, Adamantine, Leggings",Metal Armor,,,,,,,,,,,,,,,,,,,,,,,,,
Rawhide Leather Brigandine,Chest,body118,,58,"Loot, Rawhide Leather, Brigandine",Leather Armor,,,,Rawhide Leather Legguards,Leg,legs066,,58,"Loot, Rawhide Leather, Legguards",Leather Armor,,,,,,,,,,,,,,,,,,,,,,,,,
Rawhide Leather Coat,Chest,body118,,60,"Loot, Rawhide Leather, coat",Leather Armor,,,,Rawhide Leather Kilt,Leg,legs067,,60,"Loot, Rawhide Leather, Kilt",Leather Armor,,,,,,,,,,,,,,,,,,,,,,,,,
Rawhide Leather Gambeson,Chest,body119,,61,"Loot, Rawhide Leather, gambeson",Leather Armor,,,,Rawhide Leather Leg Wraps,Leg,legs068,,61,"Loot, Rawhide Leather, Leg Wraps",Leather Armor,,,,,,,,,,,,,,,,,,,,,,,,,
Rawhide Leather Jerkin,Chest,body116,,63,"Loot, Rawhide Leather, Jerkin",Leather Armor,,,,Rawhide Leather Haidate,Leg,legs068,,63,"Loot, Rawhide Leather, Haidate",Leather Armor,,,,,,,,,,,,,,,,,,,,,,,,,
Rawhide Leather Segmentata,Chest,body119,,66,"Loot, Rawhide Leather, Segmentata",Leather Armor,,,,Rawhide Leather Culottes,Leg,legs069,,66,"Loot, Rawhide Leather, Culottes",Leather Armor,,,,,,,,,,,,,,,,,,,,,,,,,
Rawhide Leather Harness,Chest,body116,,69,"Loot, Rawhide Leather, Hardness",Leather Armor,,,,Rawhide Leather Sarouel,Leg,legs070,,69,"Loot, Rawhide Leather, Sarouel",Leather Armor,,,,,,,,,,,,,,,,,,,,,,,,,
Rawhide Leather Surcoat,Chest,body118,,71,"Loot, Rawhide Leather, Surcoat",Leather Armor,,,,Rawhide Leather Leggings,Leg,legs064,,71,"Loot, Rawhide Leather, Leggings",Leather Armor,,,,,,,,,,,,,,,,,,,,,,,,,
Twill Shirt,Chest,body081,,72,"Loot, Twill, shirt",Cloth Armor,,,,Twill Breeches,Leg,legs064,,72,"Loot, Twill, Breeches",Cloth Armor,,,,,,,,,,,,,,,,,,,,,,,,,
Twill Vest,Chest,body090,,74,"Loot, Twill, vest",Cloth Armor,,,,Twill Leggings,Leg,legs065,,74,"Loot, Twill, Leggings",Cloth Armor,,,,,,,,,,,,,,,,,,,,,,,,,
Twill Robe,Chest,body086,,76,"Loot, Twill, Robe",Cloth Armor,,,,Twill Pants,Leg,legs066,,76,"Loot, Twill, Pants",Cloth Armor,,,,,,,,,,,,,,,,,,,,,,,,,
Twill Tunic,Chest,body081,,77,"Loot, Twill, Tunic",Cloth Armor,,,,Twill Trousers,Leg,legs066,,77,"Loot, Twill, Trousers",Cloth Armor,,,,,,,,,,,,,,,,,,,,,,,,,
Twill Doublet,Chest,body081,,79,"Loot, Twill, Doublet",Cloth Armor,,,,Twill Pantaloons,Leg,legs067,,79,"Loot, Twill, Pantaloons",Cloth Armor,,,,,,,,,,,,,,,,,,,,,,,,,
Twill Bliaud,Chest,body086,,82,"Loot, Twill, Bliaud",Cloth Armor,,,,Twill Britches,Leg,legs068,,82,"Loot, Twill, Britches",Cloth Armor,,,,,,,,,,,,,,,,,,,,,,,,,
Twill Acton,Chest,body090,,85,"Loot, Twill, Acton",Cloth Armor,,,,Twill Slops,Leg,legs068,,85,"Loot, Twill, Slops",Cloth Armor,,,,,,,,,,,,,,,,,,,,,,,,,
Mythril Breastplate,Chest,body103,,73,"Loot, Mythril, Breastplate",Metal Armor,,,,Mythril Chausses,Leg,legs069,,73,"Loot, Mythril, Chausses",Metal Armor,,,,,,,,,,,,,,,,,,,,,,,,,
Mythril Byrnie,Chest,body106,,75,"Loot, Mythril, Byrnie",Metal Armor,,,,Mythril Greaves,Leg,legs070,,75,"Loot, Mythril, Greaves",Metal Armor,,,,,,,,,,,,,,,,,,,,,,,,,
Mythril Chainmail,Chest,body106,,77,"Loot, Mythril, Chainmail",Metal Armor,,,,Mythril Poleyn,Leg,legs064,,77,"Loot, Mythril, Poleyn",Metal Armor,,,,,,,,,,,,,,,,,,,,,,,,,
Mythril Curiass,Chest,body104,,79,"Loot, Mythril, Curiass",Metal Armor,,,,Mythril Scynbalds,Leg,legs064,,79,"Loot, Mythril, Scynbalds",Metal Armor,,,,,,,,,,,,,,,,,,,,,,,,,
Mythril Plate,Chest,body105,,80,"Loot, Mythril, Plate",Metal Armor,,,,Mythril Legplates,Leg,legs065,,80,"Loot, Mythril, Legplates",Metal Armor,,,,,,,,,,,,,,,,,,,,,,,,,
Mythril Ringmail,Chest,body106,,82,"Loot, Mythril, Ringmail",Metal Armor,,,,Mythril Cuisses,Leg,legs066,,82,"Loot, Mythril, Cuisses",Metal Armor,,,,,,,,,,,,,,,,,,,,,,,,,
Mythril Scale Mail,Chest,body106,,84,"Loot, Mythril, Scale mail",Metal Armor,,,,Mythril Leggings,Leg,legs066,,84,"Loot, Mythril, Leggings",Metal Armor,,,,,,,,,,,,,,,,,,,,,,,,,
Thick Leather Brigandine,Chest,body118,,73,"Loot, Thick Leather, Brigandine",Leather Armor,,,,Thick Leather Legguards,Leg,legs067,,73,"Loot, Thick Leather, Legguards",Leather Armor,,,,,,,,,,,,,,,,,,,,,,,,,
Thick Leather Coat,Chest,body118,,74,"Loot, Thick Leather, coat",Leather Armor,,,,Thick Leather Kilt,Leg,legs068,,74,"Loot, Thick Leather, Kilt",Leather Armor,,,,,,,,,,,,,,,,,,,,,,,,,
Thick Leather Gambeson,Chest,body119,,77,"Loot, Thick Leather, Gambeson",Leather Armor,,,,Thick Leather Leg Wraps,Leg,legs068,,77,"Loot, Thick Leather, Leg Wraps",Leather Armor,,,,,,,,,,,,,,,,,,,,,,,,,
Thick Leather Jerkin,Chest,body119,,79,"Loot, Thick Leather, Jerkin",Leather Armor,,,,Thick Leather Haidate,Leg,legs069,,79,"Loot, Thick Leather, Haidate",Leather Armor,,,,,,,,,,,,,,,,,,,,,,,,,
Thick Leather Segmentata,Chest,body116,,80,"Loot, Thick Leather, Segmentata",Leather Armor,,,,Thick Leather Culottes,Leg,legs070,,80,"Loot, Thick Leather, Culottes",Leather Armor,,,,,,,,,,,,,,,,,,,,,,,,,
Thick Leather Harness,Chest,body116,,82,"Loot, Thick Leather, Harness",Leather Armor,,,,Thick Leather Sarouel,Leg,legs064,,82,"Loot, Thick Leather, Sarouel",Leather Armor,,,,,,,,,,,,,,,,,,,,,,,,,
Thick Leather Surcoat,Chest,body116,,84,"Loot, Thick Leather, Surcoat",Leather Armor,,,,Thick Leather Leggings,Leg,legs064,,84,"Loot, Thick Leather, Leggings",Leather Armor,,,,,,,,,,,,,,,,,,,,,,,,,
Samite Shirt,Chest,body017,,86,"Loot, Samite, Shirt",Cloth Armor,,,,Samite Breeches,Leg,legs064,,86,"Loot, Samite, Breeches",Cloth Armor,,,,,,,,,,,,,,,,,,,,,,,,,
Samite Vest,Chest,body089,,88,"Loot, Samite, Vest",Cloth Armor,,,,Samite Leggings,Leg,legs064,,88,"Loot, Samite, Leggings",Cloth Armor,,,,,,,,,,,,,,,,,,,,,,,,,
Samite Robe,Chest,body088,,90,"Loot, Samite, Robe",Cloth Armor,,,,Samite Pants,Leg,legs065,,90,"Loot, Samite, Pants",Cloth Armor,,,,,,,,,,,,,,,,,,,,,,,,,
Samite Tunic,Chest,body008,,92,"Loot, Samite, Tunic",Cloth Armor,,,,Samite Trousers,Leg,legs066,,92,"Loot, Samite, Trousers",Cloth Armor,,,,,,,,,,,,,,,,,,,,,,,,,
Samite Doublet,Chest,body082,,96,"Loot, Samite, Doublet",Cloth Armor,,,,Samite Pantaloons,Leg,legs066,,96,"Loot, Samite, Pantaloons",Cloth Armor,,,,,,,,,,,,,,,,,,,,,,,,,
Samite Bliaud,Chest,body082,,99,"Loot, Samite, Bliaud",Cloth Armor,,,,Samite Britches,Leg,legs067,,99,"Loot, Samite, Britches",Cloth Armor,,,,,,,,,,,,,,,,,,,,,,,,,
Samite Acton,Chest,body017,,100,"Loot, Samite, Acton",Cloth Armor,,,,Samite Slops,Leg,legs068,,100,"Loot, Samite, Slops",Cloth Armor,,,,,,,,,,,,,,,,,,,,,,,,,
Iridium Breastplate,Chest,body110,,86,"Loot, Iridium, Breastplate",Metal Armor,,,,Iridium Chausses,Leg,legs068,,86,"Loot, Iridium, Chausses",Metal Armor,,,,,,,,,,,,,,,,,,,,,,,,,
Iridium Byrnie,Chest,body108,,88,"Loot, Iridium, Byrnie",Metal Armor,,,,Iridium Greaves,Leg,legs069,,88,"Loot, Iridium, Greaves",Metal Armor,,,,,,,,,,,,,,,,,,,,,,,,,
Iridium Chainmail,Chest,body068,,91,"Loot, Iridium, Chainmail",Metal Armor,,,,Iridium Poleyn,Leg,legs070,,91,"Loot, Iridium, Poleyn",Metal Armor,,,,,,,,,,,,,,,,,,,,,,,,,
Iridium Curiass,Chest,body109,,93,"Loot, Iridium, Curiass",Metal Armor,,,,Iridium Scynbalds,Leg,legs064,,93,"Loot, Iridium, Scynbalds",Metal Armor,,,,,,,,,,,,,,,,,,,,,,,,,
Iridium Plate,Chest,body107,,95,"Loot, Iridium, Plate",Metal Armor,,,,Iridium Legplates,Leg,legs064,,95,"Loot, Iridium, Legplates",Metal Armor,,,,,,,,,,,,,,,,,,,,,,,,,
Iridium Ringmail,Chest,body108,,97,"Loot, Iridium, Ringmail",Metal Armor,,,,Iridium Cuisses,Leg,legs065,,97,"Loot, Iridium, Cuisses",Metal Armor,,,,,,,,,,,,,,,,,,,,,,,,,
Iridium Scale Mail,Chest,body108,,100,"Loot, Iridium, Scale Mail",Metal Armor,,,,Iridium Leggings,Leg,legs066,,100,"Loot, Iridium, Leggings",Metal Armor,,,,,,,,,,,,,,,,,,,,,,,,,
Rugged Leather Brigandine,Chest,body118,,86,"Rugged Leather, Brigandine, Loot",Leather Armor,,,,Rugged Leather Legguards,Leg,legs066,,86,"Loot, Rugged Leather, Legguards",Leather Armor,,,,,,,,,,,,,,,,,,,,,,,,,
Rugged Leather Coat,Chest,body118,,89,"Rugged Leather, Coat, Loot",Leather Armor,,,,Rugged Leather Kilt,Leg,legs067,,89,"Loot, Rugged Leather, Kilt",Leather Armor,,,,,,,,,,,,,,,,,,,,,,,,,
Rugged Leather Gambeson,Chest,body119,,90,"Rugged Leather, Gambeson, Loot",Leather Armor,,,,Rugged Leather Leg Wraps,Leg,legs068,,90,"Loot, Rugged Leather, Leg Wraps",Leather Armor,,,,,,,,,,,,,,,,,,,,,,,,,
Rugged Leather Jerkin,Chest,body119,,92,"Rugged Leather, Jerkin, Loot",Leather Armor,,,,Rugged Leather Haidate,Leg,legs068,,92,"Loot, Rugged Leather, Haidate",Leather Armor,,,,,,,,,,,,,,,,,,,,,,,,,
Rugged Leather Segmentata,Chest,body116,,95,"Rugged Leather, Segmentata, Loot",Leather Armor,,,,Rugged Leather Culottes,Leg,legs069,,95,"Loot, Rugged Leather, Culottes",Leather Armor,,,,,,,,,,,,,,,,,,,,,,,,,
Rugged Leather Harness,Chest,body116,,98,"Rugged Leather, Harness, Loot",Leather Armor,,,,Rugged Leather Sarouel,Leg,legs070,,98,"Loot, Rugged Leather, Sarouel",Leather Armor,,,,,,,,,,,,,,,,,,,,,,,,,
Rugged Leather Surcoat,Chest,body116,,100,"Rugged Leather, Surcoat, Loot",Leather Armor,,,,Rugged Leather Leggings,Leg,legs064,,100,"Loot, Rugged Leather, Leggings",Leather Armor,,,,,,,,,,,,,,,,,,,,,,,,,
Chaos Armor I,Chest,body137,,31,"Byrnie, Steel",Metal Armor,uniqueChoasArmori,,,Newbie Pants,Leg,legs022,body031,1,quest,,,,,,,,,,,,,,,,,,,,,,,,,,
Chaos Armor II,Chest,body122,,31,"Breastplate, Steel",Metal Armor,uniqueChoasArmorii,,,,,,,,,,,,,,,,,,,,,,,,,,,,,,,,,,
Blaze Armor,Chest,body136,,25,"Byrnie, Steel",Metal Armor,uniqueBlazeArmor,,,,,,,,,,,,,,,,,,,,,,,,,,,,,,,,,,
Newbie Armor,Chest,body038,body067,1,quest,,,,,,,,,,,,,,,,,,,,,,,,,,,,,,,,,,,,
